vivado_project/rv32_sim.sim/sim_1/behav/xsim/dump.vcd
$date
   Mon Apr 13 21:12:50 2026
$end
$version
  2018.3
$end
$timescale
  1ps
$end
$scope module tb_rv32 $end
$var reg 1 ! clk $end
$var reg 1 " rst_n $end
$var wire 1 # imem_valid $end
$var wire 32 $ imem_addr [31:0] $end
$var reg 1 % imem_ready $end
$var reg 1 & imem_rdata_valid $end
$var reg 32 ' imem_rdata [31:0] $end
$var wire 1 ( dmem_valid $end
$var wire 1 ) dmem_we $end
$var wire 4 * dmem_wstrb [3:0] $end
$var wire 32 + dmem_addr [31:0] $end
$var wire 32 , dmem_wdata [31:0] $end
$var reg 1 - dmem_ready $end
$var reg 1 . dmem_rdata_valid $end
$var reg 32 / dmem_rdata [31:0] $end
$var integer 32 0 i $end
$var reg 1024 1 hex_path [1023:0] $end
$scope module dut $end
$var wire 1 2 clk $end
$var wire 1 3 rst_n $end
$var wire 1 # imem_valid $end
$var wire 32 $ imem_addr [31:0] $end
$var wire 1 4 imem_ready $end
$var wire 1 5 imem_rdata_valid $end
$var wire 32 6 imem_rdata [31:0] $end
$var wire 1 ( dmem_valid $end
$var wire 1 ) dmem_we $end
$var wire 4 * dmem_wstrb [3:0] $end
$var wire 32 + dmem_addr [31:0] $end
$var wire 32 , dmem_wdata [31:0] $end
$var wire 1 7 dmem_ready $end
$var wire 1 8 dmem_rdata_valid $end
$var wire 32 9 dmem_rdata [31:0] $end
$scope module u_core $end
$var wire 1 2 clk $end
$var wire 1 3 rst_n $end
$var reg 1 : imem_valid $end
$var reg 32 ; imem_addr [31:0] $end
$var wire 1 4 imem_ready $end
$var wire 1 5 imem_rdata_valid $end
$var wire 32 6 imem_rdata [31:0] $end
$var reg 1 < dmem_valid $end
$var reg 1 = dmem_we $end
$var reg 4 > dmem_wstrb [3:0] $end
$var reg 32 ? dmem_addr [31:0] $end
$var reg 32 @ dmem_wdata [31:0] $end
$var wire 1 7 dmem_ready $end
$var wire 1 8 dmem_rdata_valid $end
$var wire 32 9 dmem_rdata [31:0] $end
$var reg 32 A pc_q [31:0] $end
$var reg 1 B imem_stall $end
$var reg 1 C dmem_stall $end
$var reg 1 D stall $end
$var reg 1 E flush_ex $end
$var reg 32 F ifid_pc [31:0] $end
$var reg 32 G ifid_instr [31:0] $end
$var reg 1 H ifid_valid $end
$var reg 7 I id_opcode [6:0] $end
$var reg 7 J id_funct7 [6:0] $end
$var reg 3 K id_funct3 [2:0] $end
$var reg 5 L id_rd [4:0] $end
$var reg 5 M id_rs1 [4:0] $end
$var reg 5 N id_rs2 [4:0] $end
$var reg 32 O id_imm_i [31:0] $end
$var reg 32 P id_imm_s [31:0] $end
$var reg 32 Q id_imm_b [31:0] $end
$var reg 32 R id_imm_u [31:0] $end
$var reg 32 S id_imm_j [31:0] $end
$var reg 32 T id_rs1_val [31:0] $end
$var reg 32 U id_rs2_val [31:0] $end
$var reg 1 V id_rf_we $end
$var reg 2 W id_wb_sel [1:0] $end
$var reg 1 X id_alu_src_a_sel $end
$var reg 2 Y id_alu_src_b_sel [1:0] $end
$var reg 4 Z id_alu_op [3:0] $end
$var reg 2 [ id_pc_sel [1:0] $end
$var reg 1 \ id_mem_req $end
$var reg 1 ] id_mem_write $end
$var reg 32 ^ idex_pc [31:0] $end
$var reg 32 _ idex_rs1_val [31:0] $end
$var reg 32 ` idex_rs2_val [31:0] $end
$var reg 5 a idex_rd [4:0] $end
$var reg 32 b idex_imm_i [31:0] $end
$var reg 32 c idex_imm_s [31:0] $end
$var reg 32 d idex_imm_b [31:0] $end
$var reg 32 e idex_imm_u [31:0] $end
$var reg 32 f idex_imm_j [31:0] $end
$var reg 3 g idex_funct3 [2:0] $end
$var reg 1 h idex_valid $end
$var reg 1 i idex_rf_we $end
$var reg 2 j idex_wb_sel [1:0] $end
$var reg 1 k idex_alu_src_a_sel $end
$var reg 2 l idex_alu_src_b_sel [1:0] $end
$var reg 4 m idex_alu_op [3:0] $end
$var reg 2 n idex_pc_sel [1:0] $end
$var reg 1 o idex_mem_req $end
$var reg 1 p idex_mem_write $end
$var reg 32 q ex_alu_a [31:0] $end
$var reg 32 r ex_alu_b [31:0] $end
$var reg 32 s ex_alu_y [31:0] $end
$var reg 1 t ex_br_take $end
$var reg 32 u ex_pc4 [31:0] $end
$var reg 32 v ex_branch_target [31:0] $end
$var reg 32 w ex_jal_target [31:0] $end
$var reg 32 x ex_jalr_target [31:0] $end
$var reg 1 y ex_pc_redirect $end
$var reg 32 z ex_pc_target [31:0] $end
$var reg 32 { ex_wb_data [31:0] $end
$var reg 4 | ex_store_wstrb [3:0] $end
$var reg 32 } ex_store_wdata [31:0] $end
$var reg 32 ~ exmem_alu_y [31:0] $end
$var reg 4 !! exmem_store_wstrb [3:0] $end
$var reg 32 "! exmem_store_wdata [31:0] $end
$var reg 5 #! exmem_rd [4:0] $end
$var reg 3 $! exmem_funct3 [2:0] $end
$var reg 1 %! exmem_valid $end
$var reg 32 &! exmem_wb_data [31:0] $end
$var reg 1 '! exmem_rf_we $end
$var reg 2 (! exmem_wb_sel [1:0] $end
$var reg 1 )! exmem_mem_req $end
$var reg 1 *! exmem_mem_write $end
$var reg 8 +! mem_load_byte [7:0] $end
$var reg 16 ,! mem_load_half [15:0] $end
$var reg 32 -! mem_load_data [31:0] $end
$var reg 32 .! mem_wb_data [31:0] $end
$var reg 32 /! memwb_wdata [31:0] $end
$var reg 5 0! memwb_rd [4:0] $end
$var reg 1 1! memwb_rf_we $end
$var reg 1 2! memwb_valid $end
$var parameter 4 3! ALU_ADD [3:0] $end
$var parameter 4 4! ALU_SUB [3:0] $end
$var parameter 4 5! ALU_AND [3:0] $end
$var parameter 4 6! ALU_OR [3:0] $end
$var parameter 4 7! ALU_XOR [3:0] $end
$var parameter 4 8! ALU_SLT [3:0] $end
$var parameter 4 9! ALU_SLTU [3:0] $end
$var parameter 4 :! ALU_SLL [3:0] $end
$var parameter 4 ;! ALU_SRL [3:0] $end
$var parameter 4 <! ALU_SRA [3:0] $end
$var parameter 0 =! ALU_SRC_A_RS1 $end
$var parameter 0 >! ALU_SRC_A_PC $end
$var parameter 2 ?! ALU_SRC_B_RS2 [1:0] $end
$var parameter 2 @! ALU_SRC_B_IMM_I [1:0] $end
$var parameter 2 A! ALU_SRC_B_IMM_S [1:0] $end
$var parameter 2 B! ALU_SRC_B_IMM_U [1:0] $end
$var parameter 2 C! WB_SRC_ALU [1:0] $end
$var parameter 2 D! WB_SRC_MEM [1:0] $end
$var parameter 2 E! WB_SRC_PC4 [1:0] $end
$var parameter 2 F! WB_SRC_IMM_U [1:0] $end
$var parameter 2 G! PC_SRC_PC4 [1:0] $end
$var parameter 2 H! PC_SRC_BRANCH [1:0] $end
$var parameter 2 I! PC_SRC_JAL [1:0] $end
$var parameter 2 J! PC_SRC_JALR [1:0] $end
$scope module u_dec $end
$var wire 32 K! instr [31:0] $end
$var reg 7 I opcode [6:0] $end
$var reg 3 K funct3 [2:0] $end
$var reg 7 J funct7 [6:0] $end
$var reg 5 L rd [4:0] $end
$var reg 5 M rs1 [4:0] $end
$var reg 5 N rs2 [4:0] $end
$upscope $end
$scope module u_imm $end
$var wire 32 L! instr [31:0] $end
$var reg 32 O imm_i [31:0] $end
$var reg 32 P imm_s [31:0] $end
$var reg 32 Q imm_b [31:0] $end
$var reg 32 R imm_u [31:0] $end
$var reg 32 S imm_j [31:0] $end
$upscope $end
$scope module u_rf $end
$var wire 1 2 clk $end
$var wire 1 M! we $end
$var wire 5 N! waddr [4:0] $end
$var wire 32 O! wdata [31:0] $end
$var wire 5 P! raddr1 [4:0] $end
$var wire 5 Q! raddr2 [4:0] $end
$var reg 32 T rdata1 [31:0] $end
$var reg 32 U rdata2 [31:0] $end
$upscope $end
$scope module u_alu $end
$var wire 4 R! alu_op [3:0] $end
$var wire 32 S! a [31:0] $end
$var wire 32 T! b [31:0] $end
$var reg 32 s y [31:0] $end
$var parameter 4 U! ALU_ADD [3:0] $end
$var parameter 4 V! ALU_SUB [3:0] $end
$var parameter 4 W! ALU_AND [3:0] $end
$var parameter 4 X! ALU_OR [3:0] $end
$var parameter 4 Y! ALU_XOR [3:0] $end
$var parameter 4 Z! ALU_SLT [3:0] $end
$var parameter 4 [! ALU_SLTU [3:0] $end
$var parameter 4 \! ALU_SLL [3:0] $end
$var parameter 4 ]! ALU_SRL [3:0] $end
$var parameter 4 ^! ALU_SRA [3:0] $end
$upscope $end
$scope module u_br $end
$var wire 3 _! funct3 [2:0] $end
$var wire 32 `! rs1 [31:0] $end
$var wire 32 a! rs2 [31:0] $end
$var reg 1 t take $end
$upscope $end
$upscope $end
$upscope $end
$scope begin Block98_19 $end
$var integer 32 b! wi $end
$var reg 32 c! cur [31:0] $end
$upscope $end
$upscope $end
$enddefinitions $end
#0
$dumpvars
0!
bx !!
0"
bx "!
0#
bx #!
bx $
bx $!
1%
x%!
0&
bx &!
bx '
x'!
x(
bx (!
x)
x)!
bx *
x*!
bx +
bx +!
bx ,
bx ,!
1-
bx -!
0.
bx .!
bx /
bx /!
b100000000 0
bx 0!
b111010001100101011100110111010001110011001011110110000101100100011001000110100100101110011010000110010101111000 1
x1!
02
x2!
03
b0 3!
14
b1 4!
05
b10 5!
bx 6
b11 6!
17
b100 7!
08
b101 8!
bx 9
b110 9!
0:
b111 :!
bx ;
b1000 ;!
x<
b1001 <!
x=
0=!
bx >
1>!
bx ?
b0 ?!
bx @
b1 @!
bx A
b10 A!
1B
b11 B!
xC
b0 C!
1D
b1 D!
0E
b10 E!
bx F
b11 F!
bx G
b0 G!
xH
b1 H!
bx I
b10 I!
bx J
b11 J!
bx K
bx K!
bx L
bx L!
bx M
xM!
bx N
bx N!
bx O
bx O!
bx P
bx P!
bx0 Q
bx Q!
bx000000000000 R
bx R!
bx0 S
bx S!
bx T
bx T!
bx U
b0 U!
0V
b1 V!
b0 W
b10 W!
0X
b11 X!
b0 Y
b100 Y!
b0 Z
b101 Z!
b0 [
b110 [!
0\
b111 \!
0]
b1000 ]!
bx ^
b1001 ^!
bx _
bx _!
bx `
bx `!
bx a
bx a!
bx b
bx b!
bx c
bx c!
bx d
bx e
bx f
bx g
xh
xi
bx j
xk
bx l
bx m
bx n
xo
xp
bx q
bx r
b0 s
0t
bx u
bx v
bx w
b0 x
0y
bx z
b0 {
b0 |
b0 }
bx ~
$end
#5000
1!
b0 !!
b0 "!
b0 #!
b0 $
b0 $!
0%!
b0 &!
b10011 '
0'!
0(
b0 (!
0)
0)!
b0 *
0*!
b0 +
b0 +!
b0 ,
b0 ,!
b0 -!
b0 .!
b0 /
b0 /!
b0 0!
01!
12
02!
b10011 6
b0 9
b0 ;
0<
0=
b0 >
b0 ?
b0 @
b0 A
0C
1D
b0 F
b10011 G
0H
b10011 I
b0 J
b0 K
b10011 K!
b0 L
b10011 L!
b0 M
0M!
b0 N
b0 N!
b0 O
b0 O!
b0 P
b0 P!
b0 Q
b0 Q!
b0 R
b0 R!
b0 S
b0 S!
b0 T
b0 T!
b0 U
b0 ^
b0 _
b0 _!
b0 `
b0 `!
b0 a
b0 a!
b0 b
b0 c
b0 d
b0 e
b0 f
b0 g
0h
0i
b0 j
0k
b0 l
b0 m
b0 n
0o
0p
b0 q
b0 r
b0 s
1t
b100 u
b0 v
b0 w
b100 z
b0 ~
#10000
0!
02
#15000
1!
12
#20000
0!
02
#25000
1!
12
#30000
0!
02
#35000
1!
12
#40000
0!
02
#45000
1!
1"
1#
1&
b10011 '
b0 /
12
13
15
1:
0B
0D
#50000
0!
02
#55000
1!
b100 $
b10011 '
12
b100 ;
b100 A
1H
1V
b1 Y
#60000
0!
02
#65000
1!
b1000 $
b10011 '
12
b1000 ;
b1000 A
b100 F
1h
1i
b1 l
b0 r
#70000
0!
02
#75000
1!
b1100 $
1%!
b10011 '
1'!
12
b1100 ;
0<
b1100 A
0C
b1000 F
b100 ^
b0 q
b1000 u
b100 v
b100 w
b1000 z
#80000
0!
02
#85000
1!
b10000 $
b10011 '
11!
12
12!
b10000 ;
b10000 A
b1100 F
1M!
b1000 ^
b0 q
b1100 u
b1000 v
b1000 w
b1100 z
#90000
0!
02
#95000
1!
b10100 $
b10011 '
12
b10100 ;
b10100 A
b10000 F
b1100 ^
b0 q
b10000 u
b1100 v
b1100 w
b10000 z
#100000
0!
02
#105000
1!
b11000 $
b10011 '
12
b11000 ;
b11000 A
b10100 F
b10000 ^
b0 q
b10100 u
b10000 v
b10000 w
b10100 z
#110000
0!
02
#115000
1!
b11100 $
b10011 '
12
b11100 ;
b11100 A
b11000 F
b10100 ^
b0 q
b11000 u
b10100 v
b10100 w
b11000 z
#120000
0!
02
#125000
1!
b100000 $
b10011 '
12
b100000 ;
b100000 A
b11100 F
b11000 ^
b0 q
b11100 u
b11000 v
b11000 w
b11100 z
#130000
0!
02
#135000
1!
b100100 $
b10011 '
12
b100100 ;
b100100 A
b100000 F
b11100 ^
b0 q
b100000 u
b11100 v
b11100 w
b100000 z
#140000
0!
02
#145000
1!
b101000 $
b10011 '
12
b101000 ;
b101000 A
b100100 F
b100000 ^
b0 q
b100100 u
b100000 v
b100000 w
b100100 z
#150000
0!
02
#155000
1!
b101100 $
b10011 '
12
b101100 ;
b101100 A
b101000 F
b100100 ^
b0 q
b101000 u
b100100 v
b100100 w
b101000 z
#160000
0!
02
#165000
1!
b110000 $
b10011 '
12
b110000 ;
b110000 A
b101100 F
b101000 ^
b0 q
b101100 u
b101000 v
b101000 w
b101100 z
#170000
0!
02
#175000
1!
b110100 $
b10011 '
12
b110100 ;
b110100 A
b110000 F
b101100 ^
b0 q
b110000 u
b101100 v
b101100 w
b110000 z
#180000
0!
02
#185000
1!
b111000 $
b10011 '
12
b111000 ;
b111000 A
b110100 F
b110000 ^
b0 q
b110100 u
b110000 v
b110000 w
b110100 z
#190000
0!
02
#195000
1!
b111100 $
b10011 '
12
b111100 ;
b111100 A
b111000 F
b110100 ^
b0 q
b111000 u
b110100 v
b110100 w
b111000 z
#200000
0!
02
#205000
1!
b1000000 $
b10011 '
12
b1000000 ;
b1000000 A
b111100 F
b111000 ^
b0 q
b111100 u
b111000 v
b111000 w
b111100 z
#210000
0!
02
#215000
1!
b1000100 $
b10011 '
12
b1000100 ;
b1000100 A
b1000000 F
b111100 ^
b0 q
b1000000 u
b111100 v
b111100 w
b1000000 z
#220000
0!
02
#225000
1!
b1001000 $
b10011 '
12
b1001000 ;
b1001000 A
b1000100 F
b1000000 ^
b0 q
b1000100 u
b1000000 v
b1000000 w
b1000100 z
#230000
0!
02
#235000
1!
b1001100 $
b10011 '
12
b1001100 ;
b1001100 A
b1001000 F
b1000100 ^
b0 q
b1001000 u
b1000100 v
b1000100 w
b1001000 z
#240000
0!
02
#245000
1!
b1010000 $
b10011 '
12
b1010000 ;
b1010000 A
b1001100 F
b1001000 ^
b0 q
b1001100 u
b1001000 v
b1001000 w
b1001100 z
#250000
0!
02
#255000
1!
b1010100 $
b10011 '
12
b1010100 ;
b1010100 A
b1010000 F
b1001100 ^
b0 q
b1010000 u
b1001100 v
b1001100 w
b1010000 z
#260000
0!
02
#265000
1!
b1011000 $
b10011 '
12
b1011000 ;
b1011000 A
b1010100 F
b1010000 ^
b0 q
b1010100 u
b1010000 v
b1010000 w
b1010100 z
#270000
0!
02
#275000
1!
b1011100 $
b10011 '
12
b1011100 ;
b1011100 A
b1011000 F
b1010100 ^
b0 q
b1011000 u
b1010100 v
b1010100 w
b1011000 z
#280000
0!
02
#285000
1!
b1100000 $
b10011 '
12
b1100000 ;
b1100000 A
b1011100 F
b1011000 ^
b0 q
b1011100 u
b1011000 v
b1011000 w
b1011100 z
#290000
0!
02
#295000
1!
b1100100 $
b10011 '
12
b1100100 ;
b1100100 A
b1100000 F
b1011100 ^
b0 q
b1100000 u
b1011100 v
b1011100 w
b1100000 z
#300000
0!
02
#305000
1!
b1101000 $
b10011 '
12
b1101000 ;
b1101000 A
b1100100 F
b1100000 ^
b0 q
b1100100 u
b1100000 v
b1100000 w
b1100100 z
#310000
0!
02
#315000
1!
b1101100 $
b10011 '
12
b1101100 ;
b1101100 A
b1101000 F
b1100100 ^
b0 q
b1101000 u
b1100100 v
b1100100 w
b1101000 z
#320000
0!
02
#325000
1!
b1110000 $
b10011 '
12
b1110000 ;
b1110000 A
b1101100 F
b1101000 ^
b0 q
b1101100 u
b1101000 v
b1101000 w
b1101100 z
#330000
0!
02
#335000
1!
b1110100 $
b10011 '
12
b1110100 ;
b1110100 A
b1110000 F
b1101100 ^
b0 q
b1110000 u
b1101100 v
b1101100 w
b1110000 z
#340000
0!
02
#345000
1!
b1111000 $
b10011 '
12
b1111000 ;
b1111000 A
b1110100 F
b1110000 ^
b0 q
b1110100 u
b1110000 v
b1110000 w
b1110100 z
#350000
0!
02
#355000
1!
b1111100 $
b10011 '
12
b1111100 ;
b1111100 A
b1111000 F
b1110100 ^
b0 q
b1111000 u
b1110100 v
b1110100 w
b1111000 z
#360000
0!
02
#365000
1!
b10000000 $
b10011 '
12
b10000000 ;
b10000000 A
b1111100 F
b1111000 ^
b0 q
b1111100 u
b1111000 v
b1111000 w
b1111100 z
#370000
0!
02
#375000
1!
b10000100 $
b10011 '
12
b10000100 ;
b10000100 A
b10000000 F
b1111100 ^
b0 q
b10000000 u
b1111100 v
b1111100 w
b10000000 z
#380000
0!
02
#385000
1!
b10001000 $
b10011 '
12
b10001000 ;
b10001000 A
b10000100 F
b10000000 ^
b0 q
b10000100 u
b10000000 v
b10000000 w
b10000100 z
#390000
0!
02
#395000
1!
b10001100 $
b10011 '
12
b10001100 ;
b10001100 A
b10001000 F
b10000100 ^
b0 q
b10001000 u
b10000100 v
b10000100 w
b10001000 z
#400000
0!
02
#405000
1!
b10010000 $
b10011 '
12
b10010000 ;
b10010000 A
b10001100 F
b10001000 ^
b0 q
b10001100 u
b10001000 v
b10001000 w
b10001100 z
#410000
0!
02
#415000
1!
b10010100 $
b10011 '
12
b10010100 ;
b10010100 A
b10010000 F
b10001100 ^
b0 q
b10010000 u
b10001100 v
b10001100 w
b10010000 z
#420000
0!
02
#425000
1!
b10011000 $
b10011 '
12
b10011000 ;
b10011000 A
b10010100 F
b10010000 ^
b0 q
b10010100 u
b10010000 v
b10010000 w
b10010100 z
#430000
0!
02
#435000
1!
b10011100 $
b10011 '
12
b10011100 ;
b10011100 A
b10011000 F
b10010100 ^
b0 q
b10011000 u
b10010100 v
b10010100 w
b10011000 z
#440000
0!
02
#445000
1!
b10100000 $
b10011 '
12
b10100000 ;
b10100000 A
b10011100 F
b10011000 ^
b0 q
b10011100 u
b10011000 v
b10011000 w
b10011100 z
#450000
0!
02
#455000
1!
b10100100 $
b10011 '
12
b10100100 ;
b10100100 A
b10100000 F
b10011100 ^
b0 q
b10100000 u
b10011100 v
b10011100 w
b10100000 z
#460000
0!
02
#465000
1!
b10101000 $
b10011 '
12
b10101000 ;
b10101000 A
b10100100 F
b10100000 ^
b0 q
b10100100 u
b10100000 v
b10100000 w
b10100100 z
#470000
0!
02
#475000
1!
b10101100 $
b10011 '
12
b10101100 ;
b10101100 A
b10101000 F
b10100100 ^
b0 q
b10101000 u
b10100100 v
b10100100 w
b10101000 z
#480000
0!
02
#485000
1!
b10110000 $
b10011 '
12
b10110000 ;
b10110000 A
b10101100 F
b10101000 ^
b0 q
b10101100 u
b10101000 v
b10101000 w
b10101100 z
#490000
0!
02
#495000
1!
b10110100 $
b10011 '
12
b10110100 ;
b10110100 A
b10110000 F
b10101100 ^
b0 q
b10110000 u
b10101100 v
b10101100 w
b10110000 z
#500000
0!
02
#505000
1!
b10111000 $
b10011 '
12
b10111000 ;
b10111000 A
b10110100 F
b10110000 ^
b0 q
b10110100 u
b10110000 v
b10110000 w
b10110100 z
#510000
0!
02
#515000
1!
b10111100 $
b10011 '
12
b10111100 ;
b10111100 A
b10111000 F
b10110100 ^
b0 q
b10111000 u
b10110100 v
b10110100 w
b10111000 z
#520000
0!
02
#525000
1!
b11000000 $
b10011 '
12
b11000000 ;
b11000000 A
b10111100 F
b10111000 ^
b0 q
b10111100 u
b10111000 v
b10111000 w
b10111100 z
#530000
0!
02
#535000
1!
b11000100 $
b10011 '
12
b11000100 ;
b11000100 A
b11000000 F
b10111100 ^
b0 q
b11000000 u
b10111100 v
b10111100 w
b11000000 z
#540000
0!
02
#545000
1!
b11001000 $
b10011 '
12
b11001000 ;
b11001000 A
b11000100 F
b11000000 ^
b0 q
b11000100 u
b11000000 v
b11000000 w
b11000100 z
#550000
0!
02
#555000
1!
b11001100 $
b10011 '
12
b11001100 ;
b11001100 A
b11001000 F
b11000100 ^
b0 q
b11001000 u
b11000100 v
b11000100 w
b11001000 z
#560000
0!
02
#565000
1!
b11010000 $
b10011 '
12
b11010000 ;
b11010000 A
b11001100 F
b11001000 ^
b0 q
b11001100 u
b11001000 v
b11001000 w
b11001100 z
#570000
0!
02
#575000
1!
b11010100 $
b10011 '
12
b11010100 ;
b11010100 A
b11010000 F
b11001100 ^
b0 q
b11010000 u
b11001100 v
b11001100 w
b11010000 z
#580000
0!
02
#585000
1!
b11011000 $
b10011 '
12
b11011000 ;
b11011000 A
b11010100 F
b11010000 ^
b0 q
b11010100 u
b11010000 v
b11010000 w
b11010100 z
#590000
0!
02
#595000
1!
b11011100 $
b10011 '
12
b11011100 ;
b11011100 A
b11011000 F
b11010100 ^
b0 q
b11011000 u
b11010100 v
b11010100 w
b11011000 z
#600000
0!
02
#605000
1!
b11100000 $
b10011 '
12
b11100000 ;
b11100000 A
b11011100 F
b11011000 ^
b0 q
b11011100 u
b11011000 v
b11011000 w
b11011100 z
#610000
0!
02
#615000
1!
b11100100 $
b10011 '
12
b11100100 ;
b11100100 A
b11100000 F
b11011100 ^
b0 q
b11100000 u
b11011100 v
b11011100 w
b11100000 z
#620000
0!
02
#625000
1!
b11101000 $
b10011 '
12
b11101000 ;
b11101000 A
b11100100 F
b11100000 ^
b0 q
b11100100 u
b11100000 v
b11100000 w
b11100100 z
#630000
0!
02
#635000
1!
b11101100 $
b10011 '
12
b11101100 ;
b11101100 A
b11101000 F
b11100100 ^
b0 q
b11101000 u
b11100100 v
b11100100 w
b11101000 z
#640000
0!
02
#645000
1!
b11110000 $
b10011 '
12
b11110000 ;
b11110000 A
b11101100 F
b11101000 ^
b0 q
b11101100 u
b11101000 v
b11101000 w
b11101100 z
#650000
0!
02
#655000
1!
b11110100 $
b10011 '
12
b11110100 ;
b11110100 A
b11110000 F
b11101100 ^
b0 q
b11110000 u
b11101100 v
b11101100 w
b11110000 z
#660000
0!
02
#665000
1!
b11111000 $
b10011 '
12
b11111000 ;
b11111000 A
b11110100 F
b11110000 ^
b0 q
b11110100 u
b11110000 v
b11110000 w
b11110100 z
#670000
0!
02
#675000
1!
b11111100 $
b10011 '
12
b11111100 ;
b11111100 A
b11111000 F
b11110100 ^
b0 q
b11111000 u
b11110100 v
b11110100 w
b11111000 z
#680000
0!
02
#685000
1!
b100000000 $
b10011 '
12
b100000000 ;
b100000000 A
b11111100 F
b11111000 ^
b0 q
b11111100 u
b11111000 v
b11111000 w
b11111100 z
#690000
0!
02
#695000
1!
b100000100 $
b10011 '
12
b100000100 ;
b100000100 A
b100000000 F
b11111100 ^
b0 q
b100000000 u
b11111100 v
b11111100 w
b100000000 z
#700000
0!
02
#705000
1!
b100001000 $
b10011 '
12
b100001000 ;
b100001000 A
b100000100 F
b100000000 ^
b0 q
b100000100 u
b100000000 v
b100000000 w
b100000100 z
#710000
0!
02
#715000
1!
b100001100 $
b10011 '
12
b100001100 ;
b100001100 A
b100001000 F
b100000100 ^
b0 q
b100001000 u
b100000100 v
b100000100 w
b100001000 z
#720000
0!
02
#725000
1!
b100010000 $
b10011 '
12
b100010000 ;
b100010000 A
b100001100 F
b100001000 ^
b0 q
b100001100 u
b100001000 v
b100001000 w
b100001100 z
#730000
0!
02
#735000
1!
b100010100 $
b10011 '
12
b100010100 ;
b100010100 A
b100010000 F
b100001100 ^
b0 q
b100010000 u
b100001100 v
b100001100 w
b100010000 z
#740000
0!
02
#745000
1!
b100011000 $
b10011 '
12
b100011000 ;
b100011000 A
b100010100 F
b100010000 ^
b0 q
b100010100 u
b100010000 v
b100010000 w
b100010100 z
#750000
0!
02
#755000
1!
b100011100 $
b10011 '
12
b100011100 ;
b100011100 A
b100011000 F
b100010100 ^
b0 q
b100011000 u
b100010100 v
b100010100 w
b100011000 z
#760000
0!
02
#765000
1!
b100100000 $
b10011 '
12
b100100000 ;
b100100000 A
b100011100 F
b100011000 ^
b0 q
b100011100 u
b100011000 v
b100011000 w
b100011100 z
#770000
0!
02
#775000
1!
b100100100 $
b10011 '
12
b100100100 ;
b100100100 A
b100100000 F
b100011100 ^
b0 q
b100100000 u
b100011100 v
b100011100 w
b100100000 z
#780000
0!
02
#785000
1!
b100101000 $
b10011 '
12
b100101000 ;
b100101000 A
b100100100 F
b100100000 ^
b0 q
b100100100 u
b100100000 v
b100100000 w
b100100100 z
#790000
0!
02
#795000
1!
b100101100 $
b10011 '
12
b100101100 ;
b100101100 A
b100101000 F
b100100100 ^
b0 q
b100101000 u
b100100100 v
b100100100 w
b100101000 z
#800000
0!
02
#805000
1!
b100110000 $
b10011 '
12
b100110000 ;
b100110000 A
b100101100 F
b100101000 ^
b0 q
b100101100 u
b100101000 v
b100101000 w
b100101100 z
#810000
0!
02
#815000
1!
b100110100 $
b10011 '
12
b100110100 ;
b100110100 A
b100110000 F
b100101100 ^
b0 q
b100110000 u
b100101100 v
b100101100 w
b100110000 z
#820000
0!
02
#825000
1!
b100111000 $
b10011 '
12
b100111000 ;
b100111000 A
b100110100 F
b100110000 ^
b0 q
b100110100 u
b100110000 v
b100110000 w
b100110100 z
#830000
0!
02
#835000
1!
b100111100 $
b10011 '
12
b100111100 ;
b100111100 A
b100111000 F
b100110100 ^
b0 q
b100111000 u
b100110100 v
b100110100 w
b100111000 z
#840000
0!
02
#845000
1!
b101000000 $
b10011 '
12
b101000000 ;
b101000000 A
b100111100 F
b100111000 ^
b0 q
b100111100 u
b100111000 v
b100111000 w
b100111100 z
#850000
0!
02
#855000
1!
b101000100 $
b10011 '
12
b101000100 ;
b101000100 A
b101000000 F
b100111100 ^
b0 q
b101000000 u
b100111100 v
b100111100 w
b101000000 z
#860000
0!
02
#865000
1!
b101001000 $
b10011 '
12
b101001000 ;
b101001000 A
b101000100 F
b101000000 ^
b0 q
b101000100 u
b101000000 v
b101000000 w
b101000100 z
#870000
0!
02
#875000
1!
b101001100 $
b10011 '
12
b101001100 ;
b101001100 A
b101001000 F
b101000100 ^
b0 q
b101001000 u
b101000100 v
b101000100 w
b101001000 z
#880000
0!
02
#885000
1!
b101010000 $
b10011 '
12
b101010000 ;
b101010000 A
b101001100 F
b101001000 ^
b0 q
b101001100 u
b101001000 v
b101001000 w
b101001100 z
#890000
0!
02
#895000
1!
b101010100 $
b10011 '
12
b101010100 ;
b101010100 A
b101010000 F
b101001100 ^
b0 q
b101010000 u
b101001100 v
b101001100 w
b101010000 z
#900000
0!
02
#905000
1!
b101011000 $
b10011 '
12
b101011000 ;
b101011000 A
b101010100 F
b101010000 ^
b0 q
b101010100 u
b101010000 v
b101010000 w
b101010100 z
#910000
0!
02
#915000
1!
b101011100 $
b10011 '
12
b101011100 ;
b101011100 A
b101011000 F
b101010100 ^
b0 q
b101011000 u
b101010100 v
b101010100 w
b101011000 z
#920000
0!
02
#925000
1!
b101100000 $
b10011 '
12
b101100000 ;
b101100000 A
b101011100 F
b101011000 ^
b0 q
b101011100 u
b101011000 v
b101011000 w
b101011100 z
#930000
0!
02
#935000
1!
b101100100 $
b10011 '
12
b101100100 ;
b101100100 A
b101100000 F
b101011100 ^
b0 q
b101100000 u
b101011100 v
b101011100 w
b101100000 z
#940000
0!
02
#945000
1!
b101101000 $
b10011 '
12
b101101000 ;
b101101000 A
b101100100 F
b101100000 ^
b0 q
b101100100 u
b101100000 v
b101100000 w
b101100100 z
#950000
0!
02
#955000
1!
b101101100 $
b10011 '
12
b101101100 ;
b101101100 A
b101101000 F
b101100100 ^
b0 q
b101101000 u
b101100100 v
b101100100 w
b101101000 z
#960000
0!
02
#965000
1!
b101110000 $
b10011 '
12
b101110000 ;
b101110000 A
b101101100 F
b101101000 ^
b0 q
b101101100 u
b101101000 v
b101101000 w
b101101100 z
#970000
0!
02
#975000
1!
b101110100 $
b10011 '
12
b101110100 ;
b101110100 A
b101110000 F
b101101100 ^
b0 q
b101110000 u
b101101100 v
b101101100 w
b101110000 z
#980000
0!
02
#985000
1!
b101111000 $
b10011 '
12
b101111000 ;
b101111000 A
b101110100 F
b101110000 ^
b0 q
b101110100 u
b101110000 v
b101110000 w
b101110100 z
#990000
0!
02
#995000
1!
b101111100 $
b10011 '
12
b101111100 ;
b101111100 A
b101111000 F
b101110100 ^
b0 q
b101111000 u
b101110100 v
b101110100 w
b101111000 z
